324,12,Allevents,2559
1221,12,Allevents,2561
1222,12,Allevents,2562
1249,12,Allevents,2563
1251,12,Allevents,2564
1253,12,Allevents,2565
1254,12,Allevents,2566
1278,12,Allevents,2567
1300,12,Allevents,2568
1419,12,Allevents,2569
1517,12,Allevents,2570
1536,12,Allevents,2571
1745,12,Allevents,2573
1748,12,Allevents,2574
1812,12,Allevents,2575
2343,12,Allevents,2576
2564,12,Allevents,2577
2656,12,Allevents,2579
2891,12,Allevents,2580
2893,12,Allevents,2581
3275,12,Allevents,2582
3278,12,Allevents,2583
3279,12,Allevents,2584
3281,12,Allevents,2585
3624,12,Allevents,2586
3638,12,Allevents,2587
3642,12,Allevents,2588
3659,12,Allevents,2590
3666,12,Allevents,2592
3670,12,Allevents,2593
3671,12,Allevents,2594
3798,12,Allevents,2595
3861,12,Allevents,2597
4051,12,Allevents,2598
4052,12,Allevents,2599
4162,12,Allevents,2600
4163,12,Allevents,2602
4165,12,Allevents,2603
4166,12,Allevents,2604
4167,12,Allevents,2605
4168,12,Allevents,2606
4169,12,Allevents,2607
4170,12,Allevents,2608
4171,12,Allevents,2609
4173,12,Allevents,2610
4174,12,Allevents,2612
4178,12,Allevents,2614
4179,12,Allevents,2615
4180,12,Allevents,2616
4181,12,Allevents,2617
4182,12,Allevents,2618
4183,12,Allevents,2619
4184,12,Allevents,2621
4188,12,Allevents,2622
4192,12,Allevents,2623
4195,12,Allevents,2624
4196,12,Allevents,2625
4363,12,Allevents,2626
4370,12,Allevents,2627
4376,12,Allevents,2628
4377,12,Allevents,2629
4378,12,Allevents,2630
4379,12,Allevents,2631
4477,12,Allevents,2632
4492,12,Allevents,2633
4493,12,Allevents,2634
4535,12,Allevents,2635
4536,12,Allevents,2636
4540,12,Allevents,2637
4549,12,Allevents,2638
4579,12,Allevents,2639
4620,12,Allevents,2640
4621,12,Allevents,2642
4670,12,Allevents,2643
4857,12,Allevents,2644
4880,12,Allevents,2645
7852,12,Allevents,2646
7853,12,Allevents,2647
7859,12,Allevents,2648
7909,12,Allevents,2649
28822,12,Allevents,2651
28823,12,Allevents,2652
33104,12,Allevents,2653
33578,12,Allevents,2654
33579,12,Allevents,2656
33580,12,Allevents,2657
33581,12,Allevents,2658
33582,12,Allevents,2659
36248,12,Allevents,2660
36251,12,Allevents,2661
36254,12,Allevents,2663
36263,12,Allevents,2664
36571,12,Allevents,2665
36577,12,Allevents,2666
36578,12,Allevents,2667
36579,12,Allevents,2668
36583,12,Allevents,2669
36586,12,Allevents,2670
36605,12,Allevents,2671
36607,12,Allevents,2672
36613,12,Allevents,2673
36615,12,Allevents,2675
36614,12,Allevents,2677
36617,12,Allevents,2679
36618,12,Allevents,2681
36619,12,Allevents,2683
36620,12,Allevents,2685
36627,12,Allevents,2687
36628,12,Allevents,2689
36646,12,Allevents,2690
36652,12,Allevents,2694
36653,12,Allevents,2696
36655,12,Allevents,2697
36661,12,Allevents,2698
36662,12,Allevents,2699
36663,12,Allevents,2700
36664,12,Allevents,2701
36665,12,Allevents,2702
36667,12,Allevents,2703
36668,12,Allevents,2704
36669,12,Allevents,2705
36679,12,Allevents,2706
36680,12,Allevents,2707
36681,12,Allevents,2708
36661,28,Hook2events,2732
36681,28,Hook2events,2737
36680,28,Hook2events,2741
36669,28,Hook2events,2745
36695,28,Hook2events,2770
36696,28,Hook2events,2787
36696,33,Knowafest,2788
36697,28,Hook2events,2804
36697,33,Knowafest,2805
36698,28,Hook2events,2821
36698,33,Knowafest,2822
36699,14,Eventmaxima,2833
36699,28,Hook2events,2838
36699,33,Knowafest,2839
36700,28,Hook2events,2855
36700,33,Knowafest,2856
36701,28,Hook2events,2872
36701,33,Knowafest,2873
36702,28,Hook2events,2889
36702,33,Knowafest,2890
36702,38,iFinish,2891
36703,28,Hook2events,2907
36703,33,Knowafest,2908
36703,38,iFinish,2909
36704,28,Hook2events,2925
36704,33,Knowafest,2926
36704,38,iFinish,2927
36705,28,Hook2events,2943
36705,33,Knowafest,2944
36705,38,iFinish,2945
36706,28,Hook2events,2961
36706,33,Knowafest,2962
36706,38,iFinish,2963
36707,28,Hook2events,2979
36707,33,Knowafest,2980
36707,38,iFinish,2981
36708,28,Hook2events,2997
36708,33,Knowafest,2998
36708,38,iFinish,2999
36709,28,Hook2events,3015
36709,33,Knowafest,3016
36709,38,iFinish,3017
36710,28,Hook2events,3034
36710,33,Knowafest,3035
36710,38,iFinish,3036
36711,28,Hook2events,3052
36711,33,Knowafest,3053
36711,38,iFinish,3054
36712,14,Eventmaxima,3065
36712,28,Hook2events,3070
36712,33,Knowafest,3071
36712,38,iFinish,3072
36714,14,Eventmaxima,3083
36714,28,Hook2events,3088
36714,33,Knowafest,3089
36714,38,iFinish,3090
36715,14,Eventmaxima,3101
36715,28,Hook2events,3106
36715,33,Knowafest,3107
36715,38,iFinish,3108
36716,14,Eventmaxima,3119
36716,28,Hook2events,3124
36716,33,Knowafest,3125
36716,38,iFinish,3126
36722,7,Eventshigh,3133
36757,51,buzzmyevent,3232
36761,16,Doattend,3266
36783,1,Townscript,3269
36784,1,Townscript,3273
36786,1,Townscript,3277
36788,1,Townscript,3281
36793,1,Townscript,3289
36792,1,Townscript,3293
36794,1,Townscript,3297
36795,1,Townscript,3301
36797,1,Townscript,3309
36796,1,Townscript,3313
36798,1,Townscript,3327
36799,1,Townscript,3331
36764,24,Eventseeker,3339
36765,24,Eventseeker,3340
36764,51,buzzmyevent,3344
36767,29,citywoofer,3345
36768,29,citywoofer,3346
